{
	"questions": {
		"0": {
			"top": 165,
			"left": 525,
			"width": 58,
			"height": 160
		},
		"1": {
			"top": 331,
			"left": 198,
			"width": 61,
			"height": 87
		},
		"2": {
			"top": 603,
			"left": 0,
			"width": 79,
			"height": 125
		},
		"3": {
			"top": 732,
			"left": 172,
			"width": 87,
			"height": 83
		},
		"4": {
			"top": 757,
			"left": 488,
			"width": 29,
			"height": 56
		},
		"5": {
			"top": 802,
			"left": 536,
			"width": 96,
			"height": 89
		},
		"6": {
			"top": 597,
			"left": 1440,
			"width": 113,
			"height": 99
		},
		"7": {
			"top": 833,
			"left": 1508,
			"width": 167,
			"height": 167
		},
		"8": {
			"top": 566,
			"left": 1860,
			"width": 85,
			"height": 152
		},
		"9": {
			"top": 175,
			"left": 1826,
			"width": 119,
			"height": 171
		}
	},
	"answers": {
		"0": {
			"name": "Dark Tower",
			"thumb": "/images/thumbnails/dark-tower.jpg"
		},
		"1": {
			"name": "The Emoji Movie",
			"thumb": "/images/thumbnails/the-emoji-movie.jpg"
		},
		"2": {
			"name": "Baahubali",
			"thumb": "/images/thumbnails/baahubali.jpg"
		},
		"3": {
			"name": "Resident Evil",
			"thumb": "/images/thumbnails/resident-evil.jpg"
		},
		"4": {
			"name": "XXX Return of the Xander",
			"thumb": "/images/thumbnails/xxx-return-of-the-xander.jpg"
		},
		"5": {
			"name": "Annabelle",
			"thumb": "/images/thumbnails/annabelle.jpg"
		},
		"6": {
			"name": "Smurfs 2",
			"thumb": "/images/thumbnails/smurfs.jpg"
		},
		"7": {
			"name": "Kong Skull Island",
			"thumb": "/images/thumbnails/kong-skull-island.jpg"
		},
		"8": {
			"name": "KungFu Yoga",
			"thumb": "/images/thumbnails/kungfu-yoga.jpg"
		},
		"9": {
			"name": "Spider-Man Homecoming",
			"thumb": "/images/thumbnails/spider-man-homecoming.jpg"
		}
	}
}
